<?xml version="1.0" encoding="UTF-8"?>
<CustomTab xmlns="http://soap.sforce.com/2006/04/metadata">
    <label>FAQ&apos;s</label>
    <mobileReady>false</mobileReady>
    <motif>Custom251: TV Widescreen</motif>
    <page>FAQs</page>
</CustomTab>
