<?xml version="1.0" encoding="UTF-8"?>
<CustomTab xmlns="http://soap.sforce.com/2006/04/metadata">
    <customObject>true</customObject>
    <description>This object contains rules about how the &quot;sort as&quot; information for a listing is derived - for example, do we transform the business name A1 Lawn Care to A One Lawn Care (for sorting purposes only) - the listing is still displayed as A1 Lawn Care.</description>
    <mobileReady>false</mobileReady>
    <motif>Custom26: Flag</motif>
</CustomTab>
