<?xml version="1.0" encoding="UTF-8"?>
<CustomTab xmlns="http://soap.sforce.com/2006/04/metadata">
    <label>Send Task Notification to Sales Rep</label>
    <mobileReady>false</mobileReady>
    <motif>Custom60: Umbrella</motif>
    <page>SalesRepTaskNotification</page>
</CustomTab>
