"Trans","Trans Ver","IIS Number","ISS Date","Printed By","Source Dir #","Source Dir Version","To","From","Dir #","Dir Ver","State","Dir Name","Pub Date","Life","CMR #","Clinet #","NAT","Client Name","NAT Client ID","PG#","Line #","UDAC","BAS","SPINS","Gross Amnt","Code","ADJ Amnt","Advertising Data" 
"Trans V1","V2","091320131300198909","2013-09-13 00:00:00","Pubco 3","032663","Armstrong-Rising Sun, MD 1311","P","C","032663","Armstrong-Rising Sun, MD 1311","MD","Armstrong-Rising Sun, MD","2013-09-09 00:00:00","12","2013","3457","N","Cardinals","123412","","10","DHC","","","350","","0","Testing 1"
"Trans V1","V2","091320131300198909","2013-09-13 00:00:00","Pubco 3","032663","Armstrong-Rising Sun, MD 1311","P","C","032663","null","MD","Armstrong-Rising Sun, MD","null","12","2013","3457","N","Cardinals","123412","","200","","","01","0","","0","TERMINALS"
